<?xml version="1.0" encoding="utf-8"?>
<!-- Generator: Adobe Illustrator 19.0.1, SVG Export Plug-In . SVG Version: 6.00 Build 0)  -->
<svg version="1.1" id="Слой_1" xmlns="http://www.w3.org/2000/svg" xmlns:xlink="http://www.w3.org/1999/xlink" x="0px" y="0px"
	 viewBox="0 0 160 160" style="enable-background:new 0 0 160 160;" xml:space="preserve">
<style type="text/css">
	.st0{fill:none;stroke:#000000;stroke-width:2;stroke-linecap:round;stroke-linejoin:round;stroke-miterlimit:10;}
	.st1{fill:none;stroke:#FFFFFF;stroke-width:2;stroke-linecap:round;stroke-linejoin:round;stroke-miterlimit:10;}
</style>
<line class="st0" x1="69.7" y1="113.9" x2="90.4" y2="106.2"/>
<line class="st0" x1="69.7" y1="120.9" x2="90.4" y2="113.2"/>
<path class="st0" d="M75.4,124.9c0,0,1.3,2.1,5.4,2.1c5.2,0,7.1-5.4,7.1-5.4"/>
<path class="st0" d="M69.7,99.5v-6.6C62,89.4,56.7,81.7,56.7,72.7c0-12.3,10-22.3,22.3-22.3c12.3,0,22.3,10,22.3,22.3
	c0,8.1-4.3,15.2-10.8,19.1v6.8l-21.5,7.6"/>
<path class="st0" d="M68.9,92.6"/>
<path class="st0" d="M73.3,87c-5.3-2.4-9-7.8-9-14c0-8.5,6.9-15.4,15.4-15.4C88.1,57.6,95,64.5,95,73"/>
<line class="st1" x1="79" y1="31.1" x2="79" y2="41.2"/>
<line class="st1" x1="122.7" y1="70.9" x2="112.6" y2="70.9"/>
<line class="st1" x1="47.4" y1="70.9" x2="37.3" y2="70.9"/>
<line class="st1" x1="111.4" y1="41.9" x2="103.9" y2="48.8"/>
<line class="st1" x1="56.1" y1="93" x2="48.6" y2="99.8"/>
<line class="st1" x1="111.9" y1="99.3" x2="104.3" y2="92.6"/>
<line class="st1" x1="55.7" y1="49.2" x2="48.1" y2="42.5"/>
<path class="st1" d="M72.8,75.7c0,0,1-2.8,3.9-2.8c2.9,0,3,2.8,6.3,2.8c3.4,0,3.2-2.8,3.2-2.8"/>
</svg>
