<?xml version="1.0" encoding="utf-8"?>
<!-- Generator: Adobe Illustrator 19.0.1, SVG Export Plug-In . SVG Version: 6.00 Build 0)  -->
<svg version="1.1" id="Слой_1" xmlns="http://www.w3.org/2000/svg" xmlns:xlink="http://www.w3.org/1999/xlink" x="0px" y="0px"
	 viewBox="0 0 160 160" style="enable-background:new 0 0 160 160;" xml:space="preserve">
<style type="text/css">
	.st0{fill:none;stroke:#000000;stroke-width:2;stroke-linecap:round;stroke-linejoin:round;stroke-miterlimit:10;}
	.st1{fill:#FFFFFF;stroke:#000000;stroke-width:2;stroke-linecap:round;stroke-linejoin:round;stroke-miterlimit:10;}
	.st2{fill:none;stroke:#FFFFFF;stroke-width:2;stroke-linecap:round;stroke-linejoin:round;stroke-miterlimit:10;}
</style>
<line class="st0" x1="121.6" y1="111.4" x2="38.4" y2="111.4"/>
<polyline class="st0" points="35.8,56.7 47.4,56.7 65.2,100.9 101.6,100.9 "/>
<ellipse class="st1" cx="66.6" cy="105.5" rx="4.9" ry="4.9"/>
<ellipse class="st1" cx="102" cy="105.5" rx="4.9" ry="4.9"/>
<polyline class="st0" points="52,66.9 112.3,66.9 103.7,89.7 61.1,89.7 "/>
<line class="st2" x1="66.7" y1="74.3" x2="95.9" y2="74.3"/>
<line class="st2" x1="76.1" y1="51.7" x2="86.6" y2="51.7"/>
<line class="st0" x1="69" y1="81.4" x2="93.6" y2="81.4"/>
<rect x="64.3" y="59" class="st0" width="35.1" height="7.5"/>
</svg>
