<?xml version="1.0" encoding="utf-8"?>
<!-- Generator: Adobe Illustrator 19.0.1, SVG Export Plug-In . SVG Version: 6.00 Build 0)  -->
<svg version="1.1" id="Слой_1" xmlns="http://www.w3.org/2000/svg" xmlns:xlink="http://www.w3.org/1999/xlink" x="0px" y="0px"
	 viewBox="0 0 160 160" style="enable-background:new 0 0 160 160;" xml:space="preserve">
<style type="text/css">
	.st0{fill:none;stroke:#000000;stroke-width:2;stroke-linecap:round;stroke-linejoin:round;stroke-miterlimit:10;}
	.st1{fill:#FFFFFF;}
	.st2{stroke:#000000;stroke-linecap:round;stroke-linejoin:round;stroke-miterlimit:10;}
	.st3{fill:none;}
	.st4{fill:none;stroke:#FFFFFF;stroke-width:2;stroke-linecap:round;stroke-linejoin:round;stroke-miterlimit:10;}
</style>
<line class="st0" x1="137.8" y1="115.8" x2="22.2" y2="115.8"/>
<polyline class="st0" points="68.6,97.2 59.9,97.2 59.9,88.4 55.9,91.3 51.9,88.4 51.9,97.2 43.8,97.2 43.2,97.2 43.2,88.4 
	39.2,91.3 35.1,88.4 35.1,97.2 35.1,97.2 35.1,115.8 109.9,115.8 "/>
<path class="st0" d="M109.9,100.9"/>
<polyline class="st0" points="51.9,115.8 126.8,115.8 126.8,100.9 126.8,100.9 126.8,88.4 123,91.3 118.9,88.4 118.9,97.2 
	118.1,97.2 110.2,97.2 110.2,88.4 106.2,91.3 102.2,88.4 102.2,97.2 95,97.2 "/>
<polyline class="st0" points="87.4,70.9 87.4,56.5 82.1,46.8 81.4,46.8 76.2,56.5 76.2,70.7 "/>
<ellipse class="st1" cx="81.9" cy="59.1" rx="2.1" ry="2.1"/>
<polygon class="st2" points="81.7,35.8 82.5,37.6 84.5,37.9 83.1,39.2 83.4,41.2 81.7,40.3 79.9,41.2 80.2,39.2 78.8,37.9 
	80.8,37.6 "/>
<rect x="74.2" y="70.9" class="st0" width="15.3" height="10"/>
<g>
	<path class="st3" d="M77.3,114.8v-11.1c0-2.5,2-4.5,4.4-4.5s4.4,2,4.4,4.5v11.1"/>
	<path class="st4" d="M77.3,115.5v-11.6c0-2.6,2-4.7,4.4-4.7s4.4,2.1,4.4,4.7v5.2"/>
</g>
<rect x="68.7" y="80.9" class="st0" width="25.7" height="34.9"/>
<rect x="75.9" y="87.5" class="st1" width="4" height="4.3"/>
<rect x="83.4" y="87.5" class="st1" width="4" height="4.3"/>
<line class="st4" x1="40.8" y1="108.8" x2="59.8" y2="108.8"/>
<line class="st4" x1="101.3" y1="108.8" x2="120.2" y2="108.8"/>
</svg>
